State,Population,Population per House seat,Density (Pop. / km2),Land area (km2),Gun ownership,High school graduate,Bachelor's degree,Advanced degree,Vote
California,39536653,745974,97,403932.8,20.1%,79.8%,31.4%,11.6%,Clinton
Texas,28304596,786238,40,676587.8,35.7%,87.9%,32.3%,12.4%,Trump
Florida,20984400,777200,145,138888.1,32.5%,86.9%,27.3%,9.8%,Trump
New York,19849399,735163,162,122055.8,10.3%,85.6%,34.2%,14.8%,Clinton
Pennsylvania,12805537,711419,110,115883.8,27.1%,89.2%,28.6%,11.2%,Trump
Illinois,12802023,711224,89,143793.5,26.2%,81.9%,27.6%,9.4%,Clinton
Ohio,11658609,728663,109,105829.5,19.6%,89.1%,26.1%,9.7%,Trump
Georgia,10429379,744956,68,148958,31.6%,85.4%,28.8%,10.7%,Trump
North Carolina,10273419,790263,79,125919.8,28.7%,85.8%,28.4%,9.9%,Trump
Michigan,9962311,711594,67,146435.3,28.8%,89.6%,26.9%,10.5%,Trump
New Jersey,9005644,750470,470,19046.8,11.3%,88.6%,36.8%,14.0%,Clinton
Virginia,8470020,770002,81,102278.9,29.3%,88.3%,36.3%,15.4%,Clinton
Washington,7405743,740574,41,172120.2,27.7%,90.4%,32.9%,12.0%,Clinton
Arizona,7016270,779586,23,294207.1,32.3%,86.0%,27.5%,10.2%,Trump
Massachusetts,6859819,762202,336,20201.9,22.6%,89.8%,40.5%,17.7%,Clinton
Tennessee,6715984,746220,61,106798.2,39.4%,85.5%,24.9%,9.0%,Trump
Indiana,6666818,740758,71,92788.9,33.8%,87.8%,24.1%,8.7%,Trump
Missouri,6113532,764192,34,178041,27.1%,88.4%,27.1%,10.2%,Trump
Maryland,6052177,756522,238,25141,20.7%,89.4%,37.9%,17.3%,Clinton
Wisconsin,5795483,724435,41,140268.6,34.7%,91.0%,27.8%,9.4%,Trump
Colorado,5607154,801022,20,268431.5,34.3%,90.7%,38.1%,14.0%,Clinton
Minnesota,5576606,697076,26,206233,36.7%,92.4%,33.7%,11.2%,Clinton
South Carolina,5024369,717767,62,77857.6,44.4%,85.6%,25.8%,9.3%,Trump
Alabama,4874747,696392,37,131169.9,48.9%,84.3%,23.5%,8.7%,Trump
Louisiana,4684333,780722,41,111897.8,44.5%,83.4%,22.5%,7.7%,Trump
Kentucky,4454189,742365,43,102268.3,42.4%,84.2%,22.3%,9.2%,Trump
Oregon,4142776,828555,16,248607.8,26.6%,89.8%,30.8%,11.5%,Clinton
Oklahoma,3930864,786173,22,177660.2,31.2%,86.9%,24.1%,8.0%,Trump
Connecticut,3588184,717637,286,12540.7,16.6%,89.9%,37.6%,16.6%,Clinton
Puerto Rico,3337177,—,404,9103.8,,73.0%,,,
Iowa,3145711,786428,21,144669,33.8%,91.5%,26.7%,8.5%,Trump
Utah,3101833,775458,14,212819.3,31.9%,91.2%,31.1%,10.4%,Trump
Arkansas,3004279,751070,22,134770,57.9%,84.8%,21.1%,7.5%,Trump
Nevada,2998039,749510,10,284331.5,37.5%,85.1%,23.0%,7.9%,Clinton
Mississippi,2984100,746025,24,121530,42.8%,82.3%,20.7%,7.7%,Trump
Kansas,2913123,728281,14,211754.8,32.2%,90.2%,31.0%,11.0%,Trump
New Mexico,2088070,696023,6,314160.4,49.9%,84.2%,26.3%,11.5%,Clinton
Nebraska,1920076,640025,9,198973.2,19.8%,90.7%,29.3%,9.7%,"Trump (at-large, NE-01, NE-03)"
West Virginia,1815857,605285,29,62258.1,54.2%,85.0%,19.2%,7.4%,Trump
Idaho,1716943,858472,7,214044.4,56.9%,89.5%,25.9%,8.2%,Trump
Hawaii,1427538,713769,86,16635.5,45.1%,91.0%,30.8%,10.5%,Clinton
New Hampshire,1342795,671398,57,23188.2,14.4%,92.0%,34.9%,13.0%,Clinton
Maine,1335907,667954,16,79883,22.6%,91.6%,29.0%,10.3%,Clinton (at-large)
Rhode Island,1059639,529820,394,2678,5.8%,86.2%,31.9%,12.8%,Clinton
Montana,1050493,1050493,2,376962.4,52.3%,92.8%,29.5%,9.5%,Trump
Delaware,961939,961939,187,5047.9,5.2%,88.4%,30.0%,12.2%,Clinton
South Dakota,869666,869666,4,196349.6,35.0%,90.9%,27.0%,8.0%,Trump
North Dakota,755393,755393,4,178711.8,47.9%,91.7%,27.7%,7.6%,Trump
Alaska,739795,739795,0,1477953.4,61.7%,92.1%,28.0%,10.1%,Trump
District of Columbia,693972,—,4251,158.1,25.9%,89.3%,54.6%,31.3%,Clinton
Vermont,623657,623657,26,23871.9,28.8%,91.8%,36.0%,14.3%,Clinton
Wyoming,579315,579315,2,251469.7,53.8%,92.3%,25.7%,8.6%,Trump
Guam,[note 2],—,314,543.9,,,,,
American Samoa,[note 2],—,279,199.4,,,,,
Northern Mariana Islands,[note 2],—,118,463.6,,,,,
United States,,,,,,86.7%,29.8%,11.2%,
